.cogni/output_tooluse_zOt3FMmS7Clu6h2DqKkwOa.txt
=== Command: Get-Content "simulation_results\sim_2026-04-19T04-54-27-025Z\eda_results.json" | ConvertFrom-Json | Select-Object -ExpandProperty stdout (2026-04-19T04:55:14.159Z) ===
Exit Code: 0
Output:
INFO: [EDA] eda: version 0.5.1
INFO: [EDA] main: eda sim --no-color --tool verilator --seed=1 --verilate-args=-Wno-fatal --waves bench_mixed_traffic; (run from /app/eda.work/e641580f-db37-478a-83b4-86fd1c428afb.edacmd)
INFO: [EDA] python: version 3.12.12
INFO: [EDA] eda from: /app/venv/lib/python3.12/site-packages/opencos
INFO: [EDA] eda_config: using config: /app/venv/lib/python3.12/site-packages/opencos/eda_config_defaults.yml
INFO: [EDA] *** OpenCOS EDA ***
INFO: [EDA] Auto tool setup for command: sim
INFO: [EDA] --Detected tool--   --Path--                    --Version--  
INFO: [EDA] verilator           (/usr/local/bin/verilator)  5.042        
INFO: [EDA] --Detected other--  --Path--                    --Version--  
INFO: [EDA] docker              /usr/bin/docker             29.1.3       
INFO: [EDA] sim: top-most target name: bench_mixed_traffic (./DEPS.yml::bench_mixed_traffic::line=10)
INFO: [EDA] artifacts: add_extension "fst", search paths: eda.work/bench_mixed_traffic.sim
INFO: [EDA] artifacts: add_extension "vcd", search paths: eda.work/bench_mixed_traffic.sim
INFO: [EDA] exec: /usr/local/bin/verilator --binary -Wno-CASEINCOMPLETE -Wno-REALCVT -Wno-SELRANGE -Wno-TIMESCALEMOD -Wno-UNSIGNED -Wno-WIDTH -Wno-fatal --timing --assert --autoflush -sv -CFLAGS -O1 -j 1 --trace-structs --trace-params --trace-fst -top tb_mixed_traffic -o sim.exe +define+SIMULATION=1 /app/eda.work/e641580f-db37-478a-83b4-86fd1c428afb.edacmd/rtl/sync_fifo.sv /app/eda.work/e641580f-db37-478a-83b4-86fd1c428afb.edacmd/rtl/packet_classifier.sv /app/eda.work/e641580f-db37-478a-83b4-86fd1c428afb.edacmd/rtl/wrr_scheduler.sv /app/eda.work/e641580f-db37-478a-83b4-86fd1c428afb.edacmd/rtl/traffic_switch_top.sv /app/eda.work/e641580f-db37-478a-83b4-86fd1c428afb.edacmd/rtl/control_logic.sv /app/eda.work/e641580f-db37-478a-83b4-86fd1c428afb.edacmd/sim/tb_mixed_traffic.sv (in eda.work/bench_mixed_traffic.sim, tee_fpath='compile.log')
INFO: [EDA] PID 15351 for /usr/local/bin/verilator
make: Entering directory '/app/eda.work/e641580f-db37-478a-83b4-86fd1c428afb.edacmd/eda.work/bench_mixed_traffic.sim/obj_dir'
ccache g++ -Os  -I.  -MMD -I/usr/local/share/verilator/include -I/usr/local/share/verilator/include/vltstd -DVERILATOR=1 -DVM_COVERAGE=0 -DVM_SC=0 -DVM_TIMING=1 -DVM_TRACE=1 -DVM_TRACE_FST=1 -DVM_TRACE_VCD=0 -DVM_TRACE_SAIF=0 -faligned-new -fcf-protection=none -Wno-bool-operation -Wno-int-in-bool-context -Wno-shadow -Wno-sign-compare -Wno-subobject-linkage -Wno-tautological-compare -Wno-uninitialized -Wno-unused-but-set-parameter -Wno-unused-but-set-variable -Wno-unused-parameter -Wno-unused-variable    -O1 -DVL_TIME_CONTEXT   -fcoroutines -c -o verilated.o /usr/local/share/verilator/include/verilated.cpp
ccache g++ -Os  -I.  -MMD -I/usr/local/share/verilator/include -I/usr/local/share/verilator/include/vltstd -DVERILATOR=1 -DVM_COVERAGE=0 -DVM_SC=0 -DVM_TIMING=1 -DVM_TRACE=1 -DVM_TRACE_FST=1 -DVM_TRACE_VCD=0 -DVM_TRACE_SAIF=0 -faligned-new -fcf-protection=none -Wno-bool-operation -Wno-int-in-bool-context -Wno-shadow -Wno-sign-compare -Wno-subobject-linkage -Wno-tautological-compare -Wno-uninitialized -Wno-unused-but-set-parameter -Wno-unused-but-set-variable -Wno-unused-parameter -Wno-unused-variable    -O1 -DVL_TIME_CONTEXT   -fcoroutines -c -o verilated_fst_c.o /usr/local/share/verilator/include/verilated_fst_c.cpp
ccache g++ -Os  -I.  -MMD -I/usr/local/share/verilator/include -I/usr/local/share/verilator/include/vltstd -DVERILATOR=1 -DVM_COVERAGE=0 -DVM_SC=0 -DVM_TIMING=1 -DVM_TRACE=1 -DVM_TRACE_FST=1 -DVM_TRACE_VCD=0 -DVM_TRACE_SAIF=0 -faligned-new -fcf-protection=none -Wno-bool-operation -Wno-int-in-bool-context -Wno-shadow -Wno-sign-compare -Wno-subobject-linkage -Wno-tautological-compare -Wno-uninitialized -Wno-unused-but-set-parameter -Wno-unused-but-set-variable -Wno-unused-parameter -Wno-unused-variable    -O1 -DVL_TIME_CONTEXT   -fcoroutines -c -o verilated_timing.o /usr/local/share/verilator/include/verilated_timing.cpp
ccache g++ -Os  -I.  -MMD -I/usr/local/share/verilator/include -I/usr/local/share/verilator/include/vltstd -DVERILATOR=1 -DVM_COVERAGE=0 -DVM_SC=0 -DVM_TIMING=1 -DVM_TRACE=1 -DVM_TRACE_FST=1 -DVM_TRACE_VCD=0 -DVM_TRACE_SAIF=0 -faligned-new -fcf-protection=none -Wno-bool-operation -Wno-int-in-bool-context -Wno-shadow -Wno-sign-compare -Wno-subobject-linkage -Wno-tautological-compare -Wno-uninitialized -Wno-unused-but-set-parameter -Wno-unused-but-set-variable -Wno-unused-parameter -Wno-unused-variable    -O1 -DVL_TIME_CONTEXT   -fcoroutines -c -o verilated_threads.o /usr/local/share/verilator/include/verilated_threads.cpp
python3 /usr/local/share/verilator/bin/verilator_includer -DVL_INCLUDE_OPT=include Vtb_mixed_traffic.cpp Vtb_mixed_traffic___024root__0.cpp Vtb_mixed_traffic__main.cpp Vtb_mixed_traffic__Trace__0.cpp Vtb_mixed_traffic__ConstPool_0.cpp Vtb_mixed_traffic___024root__Slow.cpp Vtb_mixed_traffic___024root__0__Slow.cpp Vtb_mixed_traffic__Syms.cpp Vtb_mixed_traffic__Trace__0__Slow.cpp Vtb_mixed_traffic__TraceDecls__0__Slow.cpp > Vtb_mixed_traffic__ALL.cpp
ccache g++ -Os  -I.  -MMD -I/usr/local/share/verilator/include -I/usr/local/share/verilator/include/vltstd -DVERILATOR=1 -DVM_COVERAGE=0 -DVM_SC=0 -DVM_TIMING=1 -DVM_TRACE=1 -DVM_TRACE_FST=1 -DVM_TRACE_VCD=0 -DVM_TRACE_SAIF=0 -faligned-new -fcf-protection=none -Wno-bool-operation -Wno-int-in-bool-context -Wno-shadow -Wno-sign-compare -Wno-subobject-linkage -Wno-tautological-compare -Wno-uninitialized -Wno-unused-but-set-parameter -Wno-unused-but-set-variable -Wno-unused-parameter -Wno-unused-variable    -O1 -DVL_TIME_CONTEXT   -fcoroutines -c -o Vtb_mixed_traffic__ALL.o Vtb_mixed_traffic__ALL.cpp
echo "" > Vtb_mixed_traffic__ALL.verilator_deplist.tmp
g++    verilated.o verilated_fst_c.o verilated_timing.o verilated_threads.o Vtb_mixed_traffic__ALL.a   -lz  -pthread -lpthread -latomic   -o sim.exe
rm Vtb_mixed_traffic__ALL.verilator_deplist.tmp
make: Leaving directory '/app/eda.work/e641580f-db37-478a-83b4-86fd1c428afb.edacmd/eda.work/bench_mixed_traffic.sim/obj_dir'
- V e r i l a t i o n   R e p o r t: Verilator 5.042 2025-11-02 rev v5.042
- Verilator: Built from 0.187 MB sources in 7 modules, into 0.261 MB in 10 C++ files needing 0.000 MB
- Verilator: Walltime 2.580 s (elab=0.004, cvt=0.021, bld=2.541); cpu 0.039 s on 1 threads; alloced 33.043 MB
INFO: [EDA] subprocess_run_background: wrote: /app/eda.work/e641580f-db37-478a-83b4-86fd1c428afb.edacmd/eda.work/bench_mixed_traffic.sim/compile.log
INFO: [EDA] Tool - verilator, total counts: 0 tool warnings, 0 tool errors
INFO: [EDA] exec: ./obj_dir/sim.exe +trace +verilator+seed+1 (in eda.work/bench_mixed_traffic.sim, tee_fpath='sim.log')
INFO: [EDA] PID 15382 for ./obj_dir/sim.exe
[66000] PHASE 1 START: Video Call scenario
[1706000] PHASE 1 END: H_rx=48 M_rx=16 L_rx=8  |  H_tx=48 M_tx=16 L_tx=8
[1706000] PHASE 2 START: Gaming burst + congestion
[2906000] PHASE 2: out_ready=0 (congestion window)
[4696000] PHASE 2: drops H=40 M=0 L=25 | congestion=3 | watermarks H=1 M=0 L=1
[4996000] PHASE 3 START: Starvation demo
[5236000] PHASE 3: holding backpressure for 69 cycles
[5926000] PHASE 3: starvation flags H=1 M=1 L=1 | starvation_alert=1
[5926000] PHASE 3: STARVATION BOOST WILL FIRE on release
[6126000] PHASE 3 END: after boost drain
[6126000] PHASE 4 START: Recovery and drain
[8126000] PHASE 4 END: SIMULATION SUMMARY
  Injected  : HIGH=138  MED=50  LOW=45  TOTAL=233
  Served    : HIGH=98  MED=50  LOW=20  TOTAL=168
  Dropped   : HIGH=40  MED=0  LOW=25
  Occupancy : HIGH=0  MED=0  LOW=0 (should be 0)
  RX rate   : 0 pkt/window  TX rate: 0 pkt/window
  Congestion: 0 (0=NORMAL)
DRAIN VERIFIED: all queues empty
TEST PASSED
- /app/eda.work/e641580f-db37-478a-83b4-86fd1c428afb.edacmd/sim/tb_mixed_traffic.sv:336: Verilog $finish
- S i m u l a t i o n   R e p o r t: Verilator 5.042 2025-11-02
- Verilator: $finish at 8us; walltime 0.004 s; speed 1.879 ms/s
- Verilator: cpu 0.004 s on 1 threads; alloced 209 MB
INFO: [EDA] subprocess_run_background: wrote: /app/eda.work/e641580f-db37-478a-83b4-86fd1c428afb.edacmd/eda.work/bench_mixed_traffic.sim/sim.log
INFO: [EDA] Tool - verilator, total counts: 0 tool warnings, 0 tool errors
INFO: [EDA] sim - verilator - tb_mixed_traffic: No errors observed.
INFO: [EDA] Closing logfile: eda.work/eda.log
INFO: [EDA] Wrote artifacts JSON: eda.work/bench_mixed_traffic.sim/artifacts.json
INFO: [EDA]   --> eda.work/eda.log  (text)
INFO: [EDA]   --> eda.work/bench_mixed_traffic.sim/eda_output_config.yml  (yaml)
INFO: [EDA]   --> eda.work/bench_mixed_traffic.sim/compile.log  (text)
INFO: [EDA]   --> eda.work/bench_mixed_traffic.sim/sim.log  (text)
INFO: [EDA]   --> eda.work/bench_mixed_traffic.sim/dumpfile.fst  (waveform)
INFO: [EDA] Exiting with 0 warnings, 0 errors


=== End Output ===

